-----BEGIN PGP PUBLIC KEY BLOCK-----
Version: GnuPG v2.0.15 (GNU/Linux)

mIsERCAdXQEEAL7MrBTz+3SBWpCm2ae2yaDqV3ezQcs2JlvqidJVhsZqQe9/jkxi
KTEQW5+TXF/+BlQSiebunRI7oo3+9U8GyRCgs1sf+yRQWMLzZqRaarzRhw9w+Ihl
edtqYl6/U2JZCb8Adp6d7RzlRliJdJ/VtsfXj2ef7Dwu7elOVSsmaBdtAAYptChT
dVNFIFBhY2thZ2UgU2lnbmluZyBLZXkgPGJ1aWxkQHN1c2UuZGU+iLgEEwECACIC
GwMECwcDAgMVAgMDFgIBAh4BAheABQJaqpClBQkeD0FIAAoJEOOlw2Awfj1UeSEE
AItAomled1lY+qcJXOKjNA6NKFBwbnRC6IZ8jMIBmq6MO9KK4lkbEiFdRB98klJ0
kofFjO0DryFyfvHEBYPwko2HPpVHp3QKMjwhvayUIAaCZg8eRq/7nE2KNlkHBHmg
raADZbBA/ktXY3qt1yTePb8Sw29/mN3/hrfEdjCs6Cgy
=blUq
-----END PGP PUBLIC KEY BLOCK-----

